pathanalyzer\PathEval.class
pathanalyzer\exceptions\PathException.class
pathanalyzer\Manager.class
pathanalyzer\Pattern.class
pathanalyzer\AppConstants.class
pathanalyzer\exceptions\ThreadingException.class
pathanalyzer\PathEvalTest.class
