D:\projects\java\dpa\src\main\java\pathanalyzer\PathEval.java
D:\projects\java\dpa\src\main\java\app\Main.java
D:\projects\java\dpa\src\main\java\pathanalyzer\exceptions\ThreadingException.java
D:\projects\java\dpa\src\main\java\pathanalyzer\exceptions\PathException.java
D:\projects\java\dpa\src\main\java\pathanalyzer\Manager.java
D:\projects\java\dpa\src\main\java\pathanalyzer\PathEvalTest.java
D:\projects\java\dpa\src\main\java\pathanalyzer\AppConstants.java
D:\projects\java\dpa\src\main\java\pathanalyzer\Pattern.java
